Zebra 110XiIII Plus (203dpi)
^XA
^EG
^XZ
^XA
^MCY
^XZ
^XA
^FWN^CFD,24^PW800^LH0,0
^CI0^PR6^MNY^MTT^MMT^MD0.0^JJ0,0^PON^PMN^LRN
^XZ
^XA
^DFR:TEMP_FMT.ZPL
^LRN
^XZ
^XA
^XFR:TEMP_FMT.ZPL
^ADN,36,10^FO17,15^FV0230^FS
^ADN,36,10^FO100,127^FVCRAYON^FS
^ADN,36,10^FO37,187^FV$7.97^FS
^ADN,36,10^FO289,15^FV0230^FS
^ADN,36,10^FO372,127^FVCRAYON^FS
^ADN,36,10^FO309,187^FV$7.97^FS
^ADN,36,10^FO556,15^FV0230^FS
^ADN,36,10^FO639,127^FVCRAYON^FS
^ADN,36,10^FO576,187^FV$7.97^FS
^ADN,36,20^FO448,26^FV^FS
^PQ1,0,1,Y
^XZ
^XA
^IDR:TEMP_FMT.ZPL
^XZ
