
SQL*Plus: Release 8.1.7.0.0 - Production on Thu Jan 20 20:35:29 2005

(c) Copyright 2000 Oracle Corporation.  All rights reserved.


Connected to:
Oracle8i Enterprise Edition Release 8.1.7.1.0 - Production
JServer Release 8.1.7.1.0 - Production


'ADJHS	 COUNT(*)
------ ----------
adjhst		0


'ADR_FMT_FL   COUNT(*)
----------- ----------
adr_fmt_fld	   200


'ADRMS	 COUNT(*)
------ ----------
adrmst	    43880


'ADRUP	 COUNT(*)
------ ----------
ADRUPD	    53776


'APPCF	 COUNT(*)
------ ----------
APPCFG	       87

select 'ARC_CMP', count(*) from ARC_CMP
                                *
ERROR at line 1:
ORA-00942: table or view does not exist



'ARC_CMPDT   COUNT(*)
---------- ----------
ARC_CMPDTL	20104


'ARC_CMPHD   COUNT(*)
---------- ----------
ARC_CMPHDR	 4273


'ARC_PRTMS   COUNT(*)
---------- ----------
ARC_PRTMST	    0


'ARC_TRL   COUNT(*)
-------- ----------
ARC_TRLR	  0


'ARCDT	 COUNT(*)
------ ----------
ARCDTL	       65


'ARCHD	 COUNT(*)
------ ----------
ARCHDR	       20


'AREMS	 COUNT(*)
------ ----------
AREMST	       59


'BAD_INVMO   COUNT(*)
---------- ----------
BAD_INVMOV	23498


'BATRE	 COUNT(*)
------ ----------
BATRES		0


'BLDG_MS   COUNT(*)
-------- ----------
BLDG_MST	  1


'BLNG_CYC_TY   COUNT(*)
------------ ----------
BLNG_CYC_TYP	      3


'BLNG_INV   COUNT(*)
--------- ----------
BLNG_INVC	   0


'BLNG_INVC_DT	COUNT(*)
------------- ----------
BLNG_INVC_DTL	       0


'BLNG_PR   COUNT(*)
-------- ----------
BLNG_PRD	  0


'BLNG_PRD_DT   COUNT(*)
------------ ----------
BLNG_PRD_DTL	      0


'BLNG_SERV_TY	COUNT(*)
------------- ----------
BLNG_SERV_TYP	       9


'BLNG_UO   COUNT(*)
-------- ----------
BLNG_UOM	 13


'BOMDT	 COUNT(*)
------ ----------
BOMDTL	    40550


'BOMDTL_IN   COUNT(*)
---------- ----------
BOMDTL_INS	    3


'BOMHD	 COUNT(*)
------ ----------
BOMHDR	     4974


'BOMHDR_IN   COUNT(*)
---------- ----------
BOMHDR_INS	    2


'BTN_CONFI   COUNT(*)
---------- ----------
BTN_CONFIG	  192


'CACHE_TIM_ST	COUNT(*)
------------- ----------
CACHE_TIM_STP	     222


'CALMS	 COUNT(*)
------ ----------
CALMST	       15


'CANCO	 COUNT(*)
------ ----------
CANCOD		5


'CANPC	 COUNT(*)
------ ----------
CANPCK	   196696


'CAR_MOV   COUNT(*)
-------- ----------
CAR_MOVE       8069


'CARDT	 COUNT(*)
------ ----------
CARDTE		3


'CARDT	 COUNT(*)
------ ----------
CARDTL	      844


'CARHD	 COUNT(*)
------ ----------
CARHDR	      513


'CARMT	 COUNT(*)
------ ----------
CARMTX	     3797


'CARPA	 COUNT(*)
------ ----------
CARPAK		6


'CARXR	 COUNT(*)
------ ----------
CARXRF	       20


'CLIEN	 COUNT(*)
------ ----------
CLIENT		0


'CLIENT_CHRG_SCHE   COUNT(*)
----------------- ----------
CLIENT_CHRG_SCHED	   0


'CMPDT	 COUNT(*)
------ ----------
CMPDTL	    28044


'CMPHD	 COUNT(*)
------ ----------
CMPHDR	     7779


'CNTHS	 COUNT(*)
------ ----------
CNTHST	   368015


'CNTHST_CAT   COUNT(*)
----------- ----------
CNTHST_CATS	    17


'CNTHST_T   COUNT(*)
--------- ----------
CNTHST_T1	   0


'CNTSC	 COUNT(*)
------ ----------
CNTSCH		0


'CNTWR	 COUNT(*)
------ ----------
CNTWRK	      573


'CODMS	 COUNT(*)
------ ----------
CODMST	      719


'CRNCY_MS   COUNT(*)
--------- ----------
CRNCY_MST	   0


'CRTMS	 COUNT(*)
------ ----------
CRTMST	       56


'CSTIN	 COUNT(*)
------ ----------
CSTINS	     1103


'CSTMS	 COUNT(*)
------ ----------
CSTMST	     3096


'CSTPR	 COUNT(*)
------ ----------
CSTPRQ	    14330


'CSUPPOR   COUNT(*)
-------- ----------
CSUPPORT	  1


'CTNMS	 COUNT(*)
------ ----------
CTNMST		7


'CTRY_ADR_FM   COUNT(*)
------------ ----------
CTRY_ADR_FMT	      0


'CTRY_MS   COUNT(*)
-------- ----------
CTRY_MST	 56


'CUBE_TES   COUNT(*)
--------- ----------
CUBE_TEST	  39


'CUE_TEM   COUNT(*)
-------- ----------
CUE_TEMP	 50


'DAT_FM   COUNT(*)
------- ----------
DAT_FMT 	 7


'DCS_DATASE   COUNT(*)
----------- ----------
DCS_DATASET	     5


'DCS_DBVERSIO	COUNT(*)
------------- ----------
DCS_DBVERSION	       1


'DEV_WRKAR   COUNT(*)
---------- ----------
DEV_WRKARE	 1190


'DEVMS	 COUNT(*)
------ ----------
DEVMST	      429


'DLYAC	 COUNT(*)
------ ----------
DLYACT		0


'DLYTR	 COUNT(*)
------ ----------
DLYTRN	  7584121


'DSCMS	 COUNT(*)
------ ----------
DSCMST	    22610


'DXLRE	 COUNT(*)
------ ----------
DXLREJ		0


'ERROR_LO   COUNT(*)
--------- ----------
ERROR_LOC	 976


'FRMMT	 COUNT(*)
------ ----------
FRMMTX		0


'FTPMS	 COUNT(*)
------ ----------
FTPMST	    19230


'GEMHOL   COUNT(*)
------- ----------
GEMHOLD        188


'HELP_FIL_MS   COUNT(*)
------------ ----------
HELP_FIL_MST	      0


'HSTTR	 COUNT(*)
------ ----------
HSTTRN		0


'INSMS	 COUNT(*)
------ ----------
INSMST	      520


'INTCANALO   COUNT(*)
---------- ----------
INTCANALOT	  132


'INVAD	 COUNT(*)
------ ----------
INVADJ		5


'INVADJ_TM   COUNT(*)
---------- ----------
INVADJ_TMP	   11


'INVDT	 COUNT(*)
------ ----------
INVDTL	   892527


'INVDTL_TEM   COUNT(*)
----------- ----------
INVDTL_TEMP	   564


'INVLO	 COUNT(*)
------ ----------
INVLOD	    88659


'INVMO	 COUNT(*)
------ ----------
INVMOV	    43522


'INVMOV_TEM   COUNT(*)
----------- ----------
INVMOV_TEMP	 23586


'INVSU	 COUNT(*)
------ ----------
INVSUB	   738910


'INVSUB_TEM   COUNT(*)
----------- ----------
INVSUB_TEMP	   564


'INVSU	 COUNT(*)
------ ----------
INVSUM	    61397


'IRA_UP   COUNT(*)
------- ----------
IRA_UPC       3099


'KHSUMM   COUNT(*)
------- ----------
KHSUMM5       8084


'KOLD_INVMO   COUNT(*)
----------- ----------
KOLD_INVMOV	 47449


'KOLD_INVMOV   COUNT(*)
------------ ----------
KOLD_INVMOV2	    579


'KOLD_INVMOV   COUNT(*)
------------ ----------
KOLD_INVMOV3	   2024


'KOLD_INVMOV   COUNT(*)
------------ ----------
KOLD_INVMOV4	    431


'LES_AC   COUNT(*)
------- ----------
LES_ACT 	15


'LES_APPL_CONFI   COUNT(*)
--------------- ----------
LES_APPL_CONFIG 	 0


'LES_ATH_PMS   COUNT(*)
------------ ----------
LES_ATH_PMSN	      0


'LES_ATH_ROL   COUNT(*)
------------ ----------
LES_ATH_ROLE	     41


'LES_CUST_FL   COUNT(*)
------------ ----------
LES_CUST_FLD	     58


'LES_GRID_CONFI   COUNT(*)
--------------- ----------
LES_GRID_CONFIG      30441


'LES_KEY_CONFI	 COUNT(*)
-------------- ----------
LES_KEY_CONFIG	       18


'LES_LK   COUNT(*)
------- ----------
LES_LKP        388


'LES_LKP_FL   COUNT(*)
----------- ----------
LES_LKP_FLD	   149


'LES_MLS_CA   COUNT(*)
----------- ----------
LES_MLS_CAT	  6338


'LES_MNU_GR   COUNT(*)
----------- ----------
LES_MNU_GRP	    38


'LES_MNU_IT   COUNT(*)
----------- ----------
LES_MNU_ITM	   250


'LES_MNU_OP   COUNT(*)
----------- ----------
LES_MNU_OPT	   306


'LES_NAV_BAR_TA   COUNT(*)
--------------- ----------
LES_NAV_BAR_TAB 	 3


'LES_OPT_AT   COUNT(*)
----------- ----------
LES_OPT_ATH	  1859


'LES_PRO   COUNT(*)
-------- ----------
LES_PROD	  4


'LES_USR_AT   COUNT(*)
----------- ----------
LES_USR_ATH	   409


'LES_USR_FA   COUNT(*)
----------- ----------
LES_USR_FAV	   714


'LES_USR_NAV_BA   COUNT(*)
--------------- ----------
LES_USR_NAV_BAR        423


'LES_USR_PRE   COUNT(*)
------------ ----------
LES_USR_PREF	   5668


'LES_USR_ROL   COUNT(*)
------------ ----------
LES_USR_ROLE	   1295


'LES_VAR_CONFI	 COUNT(*)
-------------- ----------
LES_VAR_CONFIG	     1636


'LES_VAR_DE   COUNT(*)
----------- ----------
LES_VAR_DEF	   360


'LES_VAR_ID   COUNT(*)
----------- ----------
LES_VAR_IDN	     0


'LES_VAR_IN   COUNT(*)
----------- ----------
LES_VAR_INP	   789


'LES_VAR_LK   COUNT(*)
----------- ----------
LES_VAR_LKP	   217


'LES_VAR_VALD	COUNT(*)
------------- ----------
LES_VAR_VALDT	     101


'LES_VAR_V   COUNT(*)
---------- ----------
LES_VAR_VP	  372


'LMSMT	 COUNT(*)
------ ----------
LMSMTX	       33


'LMSTR	 COUNT(*)
------ ----------
LMSTRN	      105


'LOAD_TEM   COUNT(*)
--------- ----------
LOAD_TEMP	 511


'LOCAC	 COUNT(*)
------ ----------
LOCACC	      545

select 'LOCA_MST', count(*) from LOCA_MST
                                 *
ERROR at line 1:
ORA-00942: table or view does not exist


select 'LOCA_PARM', count(*) from LOCA_PARM
                                  *
ERROR at line 1:
ORA-00942: table or view does not exist



'LOCMA	 COUNT(*)
------ ----------
LOCMAP		0


'LOCMS	 COUNT(*)
------ ----------
LOCMST	    91811


'LOCNA	 COUNT(*)
------ ----------
LOCNAM	      115


'MANFS	 COUNT(*)
------ ----------
MANFST	    33579


'MCS_DATASE   COUNT(*)
----------- ----------
MCS_DATASET	     3


'MCS_DBVERSIO	COUNT(*)
------------- ----------
MCS_DBVERSION	       1


'METRIC_ACCU   COUNT(*)
------------ ----------
METRIC_ACCUM	      0


'METRIC_ACCUM_DT   COUNT(*)
---------------- ----------
METRIC_ACCUM_DTL	  0


'MF_AD	 COUNT(*)
------ ----------
MF_ADJ		0


'MF_ADJ   COUNT(*)
------- ----------
MF_ADJ2       5336


'MFTEMP_LO   COUNT(*)
---------- ----------
MFTEMP_LOC	 4779


'MU_MS	 COUNT(*)
------ ----------
MU_MST	       50


'OR   COUNT(*)
--- ----------
ORD	 86407


'ORD_DE   COUNT(*)
------- ----------
ORD_DEL       9367


'ORD_IN   COUNT(*)
------- ----------
ORD_INS     149638


'ORD_LIN   COUNT(*)
-------- ----------
ORD_LINE     502215


'ORD_LINE_FI   COUNT(*)
------------ ----------
ORD_LINE_FIX	   1534


'ORD_LINE_FIX020   COUNT(*)
---------------- ----------
ORD_LINE_FIX0207	 44


'ORD_LINE_IN   COUNT(*)
------------ ----------
ORD_LINE_INS	      0


'ORD_LINE_NOT	COUNT(*)
------------- ----------
ORD_LINE_NOTE	   13764


'ORD_LINE_SUMQTYGTORDQT   COUNT(*)
----------------------- ----------
ORD_LINE_SUMQTYGTORDQTY        107


'ORD_NOLINE   COUNT(*)
----------- ----------
ORD_NOLINES	   201


'ORD_NOT   COUNT(*)
-------- ----------
ORD_NOTE     231227


'ORDER	 COUNT(*)
------ ----------
ORDERS	     2016

select 'ORDTEMP', count(*) from ORDTEMP
                                *
ERROR at line 1:
ORA-00942: table or view does not exist


select 'PARTS', counts(*) from PARTS
                       *
ERROR at line 1:
ORA-00936: missing expression



'PCFDT	 COUNT(*)
------ ----------
PCFDTL		0


'PCFHD	 COUNT(*)
------ ----------
PCFHDR		0


'PCK_BLDG_SE   COUNT(*)
------------ ----------
PCK_BLDG_SEQ	      1


'PCKBA	 COUNT(*)
------ ----------
PCKBAT	    22137


'PCKEX	 COUNT(*)
------ ----------
PCKEXC		0


'PCKMO	 COUNT(*)
------ ----------
PCKMOV	   766069


'PCKWR	 COUNT(*)
------ ----------
PCKWRK	   810337


'PENDARCHOR   COUNT(*)
----------- ----------
PENDARCHORD	     7


'PENDARCHORDL	COUNT(*)
------------- ----------
PENDARCHORDLN	       1


'PENDPRODOR   COUNT(*)
----------- ----------
PENDPRODORD	   497


'PENDPRODORDL	COUNT(*)
------------- ----------
PENDPRODORDLN	    1326


'PFLMS	 COUNT(*)
------ ----------
PFLMST	      440


'PHYS_INV_SNAPSHO   COUNT(*)
----------------- ----------
PHYS_INV_SNAPSHOT      70679

select 'PLAN_TAB', count(*) from PLAN_TAB
                                 *
ERROR at line 1:
ORA-00942: table or view does not exist



'POLDA	 COUNT(*)
------ ----------
POLDAT	     5378


'POLDAT_HS   COUNT(*)
---------- ----------
POLDAT_HST	12531


'POPUP_MN   COUNT(*)
--------- ----------
POPUP_MNU	   0

select 'PRODCLASS', count(*) from PRODCLASS
                                  *
ERROR at line 1:
ORA-00942: table or view does not exist



'PROP_FR   COUNT(*)
-------- ----------
PROP_FRM	  0


'PRSMS	 COUNT(*)
------ ----------
PRSMST	       83


'PRSWR	 COUNT(*)
------ ----------
PRSWRK		5


'PRSWRK_R   COUNT(*)
--------- ----------
PRSWRK_RK	   1


'PRTDS	 COUNT(*)
------ ----------
PRTDSC	    20647


'PRTIN	 COUNT(*)
------ ----------
PRTINS		3


'PRTMS	 COUNT(*)
------ ----------
PRTMST	    20614


'QVLWR	 COUNT(*)
------ ----------
QVLWRK	   290037


'RCVIN	 COUNT(*)
------ ----------
RCVINV	    17181


'RCVLI	 COUNT(*)
------ ----------
RCVLIN	    23781


'RCVTR	 COUNT(*)
------ ----------
RCVTRK	    12880


'RECEIVED_QTY_8   COUNT(*)
--------------- ----------
RECEIVED_QTY_81      60982


'REWOR	 COUNT(*)
------ ----------
REWORK	     1693


'RF_NOTE   COUNT(*)
-------- ----------
RF_NOTES	 54


'RFTMS	 COUNT(*)
------ ----------
RFTMST	      172


'RIMHD	 COUNT(*)
------ ----------
RIMHDR		0


'RIMLI	 COUNT(*)
------ ----------
RIMLIN		0


'RPLCF	 COUNT(*)
------ ----------
RPLCFG	     2559


'RPLWR	 COUNT(*)
------ ----------
RPLWRK	      778


'RPT_CONFI   COUNT(*)
---------- ----------
RPT_CONFIG	   79


'RTEMS	 COUNT(*)
------ ----------
RTEMST		0


'SAL_DATASE   COUNT(*)
----------- ----------
SAL_DATASET	     3


'SAL_DBVERSIO	COUNT(*)
------------- ----------
SAL_DBVERSION	       1


'SCHAG	 COUNT(*)
------ ----------
SCHAGT		1


'SERCM	 COUNT(*)
------ ----------
SERCMP	      512


'SHIPMEN   COUNT(*)
-------- ----------
SHIPMENT      25442


'SHIPMENT_IN   COUNT(*)
------------ ----------
SHIPMENT_INS	  48839


'SHIPMENT_LIN	COUNT(*)
------------- ----------
SHIPMENT_LINE	  455484


'SHIPMENT_LINE_IN   COUNT(*)
----------------- ----------
SHIPMENT_LINE_INS	   0


'SL_ALG_DE   COUNT(*)
---------- ----------
SL_ALG_DEF	  433


'SL_ALG_DEF_GR	 COUNT(*)
-------------- ----------
SL_ALG_DEF_GRP	       32


'SL_ALG_GRP_IN_BN   COUNT(*)
----------------- ----------
SL_ALG_GRP_IN_BND	   0


'SL_ALG_GRP_OUT_BN   COUNT(*)
------------------ ----------
SL_ALG_GRP_OUT_BND	    0


'SL_ALG_IN_BND_VA   COUNT(*)
----------------- ----------
SL_ALG_IN_BND_VAR	1185


'SL_ALG_OUT_BND_VA   COUNT(*)
------------------ ----------
SL_ALG_OUT_BND_VAR	   34


'SL_ALT_EVT_ARG_DE   COUNT(*)
------------------ ----------
SL_ALT_EVT_ARG_DEF	  112


'SL_ASYNC_EVT_ARG_DAT	COUNT(*)
--------------------- ----------
SL_ASYNC_EVT_ARG_DATA	       0


'SL_ASYNC_EVT_QU   COUNT(*)
---------------- ----------
SL_ASYNC_EVT_QUE	  0


'SL_CACHE_PAR	COUNT(*)
------------- ----------
SL_CACHE_PARM	       7


'SL_COL_DOMAI	COUNT(*)
------------- ----------
SL_COL_DOMAIN	     172


'SL_COL_DOMAIN_ME   COUNT(*)
----------------- ----------
SL_COL_DOMAIN_MEM	 296


'SL_COL_DOMAIN_V   COUNT(*)
---------------- ----------
SL_COL_DOMAIN_VP	 89


'SL_COMM_MTHD_ATT   COUNT(*)
----------------- ----------
SL_COMM_MTHD_ATTR	 190


'SL_COMM_MTHD_DE   COUNT(*)
---------------- ----------
SL_COMM_MTHD_DEF	 27


'SL_DATA_DTL_BUFFE   COUNT(*)
------------------ ----------
SL_DATA_DTL_BUFFER	 8891


'SL_DATA_LAYOU	 COUNT(*)
-------------- ----------
SL_DATA_LAYOUT	       11


'SL_DATASE   COUNT(*)
---------- ----------
SL_DATASET	    1


'SL_DB_CONSTRAIN   COUNT(*)
---------------- ----------
SL_DB_CONSTRAINT	128


'SL_DB_CONSTRAINT_COL	COUNT(*)
--------------------- ----------
SL_DB_CONSTRAINT_COLS	     232


'SL_DBVERSIO   COUNT(*)
------------ ----------
SL_DBVERSION	      1


'SL_DWNL   COUNT(*)
-------- ----------
SL_DWNLD     466064


'SL_EO_CO   COUNT(*)
--------- ----------
SL_EO_COL	4635


'SL_EO_DATA_DT	 COUNT(*)
-------------- ----------
SL_EO_DATA_DTL	  2303616


'SL_EO_DATA_HD	 COUNT(*)
-------------- ----------
SL_EO_DATA_HDR	  1568399


'SL_EO_DE   COUNT(*)
--------- ----------
SL_EO_DEF	 114


'SL_EO_FL   COUNT(*)
--------- ----------
SL_EO_FLD	2296


'SL_EO_SE   COUNT(*)
--------- ----------
SL_EO_SEG	 255


'SL_EO_SEG_ALG_BND_DAT	 COUNT(*)
---------------------- ----------
SL_EO_SEG_ALG_BND_DATA		0


'SL_EO_SEG_COMPL_SQ   COUNT(*)
------------------- ----------
SL_EO_SEG_COMPL_SQL	   341


'SL_EO_SEG_SQL_GROUP_B	 COUNT(*)
---------------------- ----------
SL_EO_SEG_SQL_GROUP_BY		1


'SL_EO_SEG_SQL_ORDER_B	 COUNT(*)
---------------------- ----------
SL_EO_SEG_SQL_ORDER_BY		4

select 'SL_EO_SEG_SQL_SECT', count(*) from SL_EO_SEG_SQL_SECT
                                           *
ERROR at line 1:
ORA-00942: table or view does not exist



'SL_EO_SEG_SQL_WHER   COUNT(*)
------------------- ----------
SL_EO_SEG_SQL_WHERE	   514


'SL_ES_SAP_LOC_MA   COUNT(*)
----------------- ----------
SL_ES_SAP_LOC_MAP	  16


'SL_ES_SAP_STK_ST   COUNT(*)
----------------- ----------
SL_ES_SAP_STK_STS	  12


'SL_ES_SAP_STK_STS_MO	COUNT(*)
--------------------- ----------
SL_ES_SAP_STK_STS_MOV	      16


'SL_ES_SAP_TI	COUNT(*)
------------- ----------
SL_ES_SAP_TID	       0


'SL_ES_SAP_WMMBID0   COUNT(*)
------------------ ----------
SL_ES_SAP_WMMBID01	    0


'SL_EVT_ARG_DAT   COUNT(*)
--------------- ----------
SL_EVT_ARG_DATA   23078633


'SL_EVT_ARG_DE	 COUNT(*)
-------------- ----------
SL_EVT_ARG_DEF	      640


'SL_EVT_DAT   COUNT(*)
----------- ----------
SL_EVT_DATA    1571635


'SL_EVT_DE   COUNT(*)
---------- ----------
SL_EVT_DEF	  108


'SL_EVT_DEF_GR	 COUNT(*)
-------------- ----------
SL_EVT_DEF_GRP	       25


'SL_FLD_FMT_V	COUNT(*)
------------- ----------
SL_FLD_FMT_VP	       0


'SL_I_IFD_ACTION_I   COUNT(*)
------------------ ----------
SL_I_IFD_ACTION_ID	    3


'SL_I_IFD_EVT_MA   COUNT(*)
---------------- ----------
SL_I_IFD_EVT_MAP	 71


'SL_I_SYS_IFD_I   COUNT(*)
--------------- ----------
SL_I_SYS_IFD_ID 	71


'SL_I_SYS_IFD_NONREC_KE   COUNT(*)
----------------------- ----------
SL_I_SYS_IFD_NONREC_KEY 	 0


'SL_I_SYS_IFD_SEG_I   COUNT(*)
------------------- ----------
SL_I_SYS_IFD_SEG_ID	   250


'SL_IFD_DATA_DT   COUNT(*)
--------------- ----------
SL_IFD_DATA_DTL    2865830


'SL_IFD_DATA_ER   COUNT(*)
--------------- ----------
SL_IFD_DATA_ERR 	 0


'SL_IFD_DATA_HD   COUNT(*)
--------------- ----------
SL_IFD_DATA_HDR    2048252


'SL_IFD_DE   COUNT(*)
---------- ----------
SL_IFD_DEF	  236


'SL_IFD_DEF_GR	 COUNT(*)
-------------- ----------
SL_IFD_DEF_GRP	       30


'SL_IFD_FL   COUNT(*)
---------- ----------
SL_IFD_FLD	10274


'SL_IFD_SE   COUNT(*)
---------- ----------
SL_IFD_SEG	  619


'SL_IFD_SEG_ALG_BND_DAT   COUNT(*)
----------------------- ----------
SL_IFD_SEG_ALG_BND_DATA 	 0


'SL_IFD_SEG_SQL_GROUP_B   COUNT(*)
----------------------- ----------
SL_IFD_SEG_SQL_GROUP_BY 	12


'SL_IFD_SEG_SQL_ORDER_B   COUNT(*)
----------------------- ----------
SL_IFD_SEG_SQL_ORDER_BY 	 1

select 'SL_IFD_SEG_SQL_SECT', count(*) from SL_IFD_SEG_SQL_SECT
                                            *
ERROR at line 1:
ORA-00942: table or view does not exist



'SL_IFD_SEG_SQL_WHER   COUNT(*)
-------------------- ----------
SL_IFD_SEG_SQL_WHERE	      0


'SL_IFD_SYS_MAP_DAT   COUNT(*)
------------------- ----------
SL_IFD_SYS_MAP_DATA    3215361


'SL_KW_ALG_BND_DAT   COUNT(*)
------------------ ----------
SL_KW_ALG_BND_DATA	   10


'SL_KW_DE   COUNT(*)
--------- ----------
SL_KW_DEF	  37


'SL_MOCA_RESULT   COUNT(*)
--------------- ----------
SL_MOCA_RESULTS 	 0


'SL_MSG_LO   COUNT(*)
---------- ----------
SL_MSG_LOG    1005060


'SL_O_IFD_SYS_MA   COUNT(*)
---------------- ----------
SL_O_IFD_SYS_MAP	165


'SL_O_IFD_SYS_MAP_ALG_BND_DA   COUNT(*)
---------------------------- ----------
SL_O_IFD_SYS_MAP_ALG_BND_DAT	      0


'SL_RETR_MTHD_DE   COUNT(*)
---------------- ----------
SL_RETR_MTHD_DEF	211


'SL_RETR_MTHD_IMPL_ALG_BND_DAT	 COUNT(*)
------------------------------ ----------
SL_RETR_MTHD_IMPL_ALG_BND_DATA		0


'SL_RETR_MTHD_IMPL_DE	COUNT(*)
--------------------- ----------
SL_RETR_MTHD_IMPL_DEF	     434


'SL_SQL_CRSR_COMPONEN	COUNT(*)
--------------------- ----------
SL_SQL_CRSR_COMPONENT	     433


'SL_SQL_CRSR_IN_BND_VA	 COUNT(*)
---------------------- ----------
SL_SQL_CRSR_IN_BND_VAR	      420


'SL_SYS_COM   COUNT(*)
----------- ----------
SL_SYS_COMM	    60


'SL_SYS_COMM_VA   COUNT(*)
--------------- ----------
SL_SYS_COMM_VAL        395


'SL_SYS_COMM_VAL_BND_DAT   COUNT(*)
------------------------ ----------
SL_SYS_COMM_VAL_BND_DATA	108


'SL_SYS_DE   COUNT(*)
---------- ----------
SL_SYS_DEF	   34


'SL_SYS_DEF_GR	 COUNT(*)
-------------- ----------
SL_SYS_DEF_GRP		9


'SL_SYS_IFD_COMM_VA   COUNT(*)
------------------- ----------
SL_SYS_IFD_COMM_VAL	    22


'SL_SYS_IFD_COMM_VAL_BND_DAT   COUNT(*)
---------------------------- ----------
SL_SYS_IFD_COMM_VAL_BND_DATA	     48


'SL_SYS_PAR   COUNT(*)
----------- ----------
SL_SYS_PARM	    61


'SL_SYS_PARM_GR   COUNT(*)
--------------- ----------
SL_SYS_PARM_GRP 	10

select 'SL_TAB_ADAPTER', count(*) from SL_TAB_ADAPTER
                                       *
ERROR at line 1:
ORA-00942: table or view does not exist



'SRVUS	 COUNT(*)
------ ----------
SRVUSG		0


'STO_BLDG_SE   COUNT(*)
------------ ----------
STO_BLDG_SEQ	      1


'STO   COUNT(*)
---- ----------
STOP	  13459


'STOP_ACTIO   COUNT(*)
----------- ----------
STOP_ACTION	     0


'SUPMS	 COUNT(*)
------ ----------
SUPMST	      199


'SYS_DSC_MS   COUNT(*)
----------- ----------
SYS_DSC_MST	   612


'SYSCT	 COUNT(*)
------ ----------
SYSCTL	       60


'TB_CONFI   COUNT(*)
--------- ----------
TB_CONFIG	2535


'TEMP_PRSWR   COUNT(*)
----------- ----------
TEMP_PRSWRK	     0


'TREE_NODE_CONFI   COUNT(*)
---------------- ----------
TREE_NODE_CONFIG	 88


'TRL   COUNT(*)
---- ----------
TRLR	   8077


'TRLR_AUDI   COUNT(*)
---------- ----------
TRLR_AUDIT	    0


'TRLR_NOT   COUNT(*)
--------- ----------
TRLR_NOTE	   0


'TRVSE	 COUNT(*)
------ ----------
TRVSEQ	      391


'USER_INVLO   COUNT(*)
----------- ----------
USER_INVLOC	 10953


'USERINVLO   COUNT(*)
---------- ----------
USERINVLOC	  879


'USR_AAFE   COUNT(*)
--------- ----------
USR_AAFES	  56


'USR_AAFESITEM	 COUNT(*)
-------------- ----------
USR_AAFESITEMS	       54


'USR_ARETEM   COUNT(*)
----------- ----------
USR_ARETEMP	     0


'USR_CARTON_COUNT   COUNT(*)
----------------- ----------
USR_CARTON_COUNTS	1647


'USR_CLASSDT   COUNT(*)
------------ ----------
USR_CLASSDTL	    600


'USR_CNT_AC   COUNT(*)
----------- ----------
USR_CNT_ACC	    25


'USR_CNT_ACCURAC   COUNT(*)
---------------- ----------
USR_CNT_ACCURACY	176


'USR_CNT_ACCURACY   COUNT(*)
----------------- ----------
USR_CNT_ACCURACY1	 173


'USR_CNTACC_CAT   COUNT(*)
--------------- ----------
USR_CNTACC_CATS 	17


'USR_CNTHS   COUNT(*)
---------- ----------
USR_CNTHST     824396


'USR_CNTHST_TEM   COUNT(*)
--------------- ----------
USR_CNTHST_TEMP     245309


'USR_CSTFORECAS   COUNT(*)
--------------- ----------
USR_CSTFORECAST        267

select 'USR_CYCCOUNTING', count(*) from USR_CYCCOUNTING
                                        *
ERROR at line 1:
ORA-00942: table or view does not exist



'USR_DEPTDT   COUNT(*)
----------- ----------
USR_DEPTDTL	  1349


'USR_DEPTHD   COUNT(*)
----------- ----------
USR_DEPTHDR	    58


'USR_FORECAS   COUNT(*)
------------ ----------
USR_FORECAST	  25501


'USR_FORECAST	COUNT(*)
------------- ----------
USR_FORECASTA	    7885


'USR_HOLIDAY   COUNT(*)
------------ ----------
USR_HOLIDAYS	     18


'USR_HOS   COUNT(*)
-------- ----------
USR_HOST	801


'USR_HOST_EXT_I   COUNT(*)
--------------- ----------
USR_HOST_EXT_ID      12273


'USR_HOTLIS   COUNT(*)
----------- ----------
USR_HOTLIST	   438


'USR_HRDAT   COUNT(*)
---------- ----------
USR_HRDATA	 2995


'USR_HRDATA_TEM   COUNT(*)
--------------- ----------
USR_HRDATA_TEMP       2995


'USR_HRDEP   COUNT(*)
---------- ----------
USR_HRDEPT	   27


'USR_HRHD   COUNT(*)
--------- ----------
USR_HRHDR	 211


'USR_IN40   COUNT(*)
--------- ----------
USR_IN400	 468


'USR_INVDT   COUNT(*)
---------- ----------
USR_INVDTL	  182


'USR_INVDTLTEM	 COUNT(*)
-------------- ----------
USR_INVDTLTEMP	      263


'USR_INVLO   COUNT(*)
---------- ----------
USR_INVLOD	    5


'USR_INVSU   COUNT(*)
---------- ----------
USR_INVSUB	  134


'USR_INVSUBTEM	 COUNT(*)
-------------- ----------
USR_INVSUBTEMP	      237


'USR_ITEMCOST	COUNT(*)
------------- ----------
USR_ITEMCOSTS	     309


'USR_ITEMCREATED_DT   COUNT(*)
------------------- ----------
USR_ITEMCREATED_DTE	 23148

select 'USR_DGERHDR', count(*) from USR_DGERHDR
                                    *
ERROR at line 1:
ORA-00942: table or view does not exist



'USR_LOCTEM   COUNT(*)
----------- ----------
USR_LOCTEMP	     0


'USR_LODTEM   COUNT(*)
----------- ----------
USR_LODTEMP	   290


'USR_LOT_AVAI	COUNT(*)
------------- ----------
USR_LOT_AVAIL	   11378


'USR_MONTHLY_ADJ   COUNT(*)
---------------- ----------
USR_MONTHLY_ADJS      81283


'USR_MONTH   COUNT(*)
---------- ----------
USR_MONTHS	   12


'USR_OPENORD   COUNT(*)
------------ ----------
USR_OPENORDS	  10345


'USR_OPENORDS	COUNT(*)
------------- ----------
USR_OPENORDS1	   16124


'USR_OPENORDSTATU   COUNT(*)
----------------- ----------
USR_OPENORDSTATUS	   7


'USR_ORDER_TM	COUNT(*)
------------- ----------
USR_ORDER_TMP	  441191


'USR_PACKAGIN	COUNT(*)
------------- ----------
USR_PACKAGING	      48

select 'USR_PALT_COUNTS', count(*) from USR_PALT_COUNTS
                                        *
ERROR at line 1:
ORA-00942: table or view does not exist



'USR_PART   COUNT(*)
--------- ----------
USR_PARTS      29243


'USR_PARTS   COUNT(*)
---------- ----------
USR_PARTS1	28562


'USR_PERM_ADJ_SU   COUNT(*)
---------------- ----------
USR_PERM_ADJ_SUB     228226


'USR_PHYS_INV_RCVKE   COUNT(*)
------------------- ----------
USR_PHYS_INV_RCVKEY	     0

select 'USR_PHYS_INV_CNTWRK', count(*) from USR_PHYS_INV_CNTWRK
                                            *
ERROR at line 1:
ORA-00942: table or view does not exist



'USR_PRODCOD   COUNT(*)
------------ ----------
USR_PRODCODE	  29076


'USR_PRODREWOR	 COUNT(*)
-------------- ----------
USR_PRODREWORK	     1277


'USR_PRTCOS   COUNT(*)
----------- ----------
USR_PRTCOST	 18273


'USR_REASO   COUNT(*)
---------- ----------
USR_REASON	 1638


'USR_REWOR   COUNT(*)
---------- ----------
USR_REWORK	 1269


'USR_ROLLOVERS	 COUNT(*)
-------------- ----------
USR_ROLLOVERS1	       64


'USR_SHIP_TM   COUNT(*)
------------ ----------
USR_SHIP_TMP	  11447


'USR_SHIP_TMP	COUNT(*)
------------- ----------
USR_SHIP_TMP2	   16429


'USR_SHIPDOC   COUNT(*)
------------ ----------
USR_SHIPDOCK	   5442


'USR_SHIPPED_ON_TIM   COUNT(*)
------------------- ----------
USR_SHIPPED_ON_TIME	   146


'USR_SHIPPED_ON_TIME_TEM   COUNT(*)
------------------------ ----------
USR_SHIPPED_ON_TIME_TEMP	146


'USR_SHP_HD   COUNT(*)
----------- ----------
USR_SHP_HDR	 10907


'USR_SHP_HDR   COUNT(*)
------------ ----------
USR_SHP_HDR2	   3851


'USR_STATU   COUNT(*)
---------- ----------
USR_STATUS	    4


'USR_TEMP_KHSUM   COUNT(*)
--------------- ----------
USR_TEMP_KHSUMM      10689


'USR_TEMP_R   COUNT(*)
----------- ----------
USR_TEMP_RS	168502


'USR_TEMP_SNAP_4WAL   COUNT(*)
------------------- ----------
USR_TEMP_SNAP_4WALL	  7665


'USR_TEMP_SNAP_PEN   COUNT(*)
------------------ ----------
USR_TEMP_SNAP_PEND	 8636


'USR_TEMP_SNAP_SHI   COUNT(*)
------------------ ----------
USR_TEMP_SNAP_SHIP	 9968


'USR_TOTALFORECAS   COUNT(*)
----------------- ----------
USR_TOTALFORECAST      21460


'USR_V4IN   COUNT(*)
--------- ----------
USR_V4INV	8589


'USR_WEEKLYSTAT   COUNT(*)
--------------- ----------
USR_WEEKLYSTATS       2569


'USR_WEEKLYSTATSSU   COUNT(*)
------------------ ----------
USR_WEEKLYSTATSSUM	11699


'USR_WMITEM   COUNT(*)
----------- ----------
USR_WMITEMS	   338


'USR_WMVOLUM   COUNT(*)
------------ ----------
USR_WMVOLUME	 683207


'USR_WORKORDE	COUNT(*)
------------- ----------
USR_WORKORDER	       2


'USROP	 COUNT(*)
------ ----------
USROPR	     9345


'VAR_ALT_PRTNU	 COUNT(*)
-------------- ----------
VAR_ALT_PRTNUM	     2566


'VAR_BKGCM   COUNT(*)
---------- ----------
VAR_BKGCMD	    0


'VAR_INV_SNAPSHO   COUNT(*)
---------------- ----------
VAR_INV_SNAPSHOT       3270


'VAR_LOC_CH   COUNT(*)
----------- ----------
VAR_LOC_CHG	 14057


'VAR_ORDLIN_TEM   COUNT(*)
--------------- ----------
VAR_ORDLIN_TEMP        436


'VAR_SHPOR   COUNT(*)
---------- ----------
VAR_SHPORD     174739


'VAR_V4TR   COUNT(*)
--------- ----------
VAR_V4TRN	 373


'VAR_WAVPAR_DT	 COUNT(*)
-------------- ----------
VAR_WAVPAR_DTL	       13


'VAR_WAVPAR_HD	 COUNT(*)
-------------- ----------
VAR_WAVPAR_HDR	       30


'VC_CUST_4   COUNT(*)
---------- ----------
VC_CUST_40	    0


'VEHAC	 COUNT(*)
------ ----------
VEHACC	       25


'VEHOP	 COUNT(*)
------ ----------
VEHOPR	      111


'WALMART_ITEM	COUNT(*)
------------- ----------
WALMART_ITEMS	     161

select 'WAVE_RU', count(*) from WAVE_RU
                                *
ERROR at line 1:
ORA-00942: table or view does not exist



'WEB_FIEL   COUNT(*)
--------- ----------
WEB_FIELD	 274


'WEB_SERVIC   COUNT(*)
----------- ----------
WEB_SERVICE	    17


'WEB_SERVICE_ACTIO   COUNT(*)
------------------ ----------
WEB_SERVICE_ACTION	    0


'WF_APP   COUNT(*)
------- ----------
WF_APPL        194


'WF_FL	 COUNT(*)
------ ----------
WF_FLW	      647


'WF_FR	 COUNT(*)
------ ----------
WF_FRM	      408


'WKAMS	 COUNT(*)
------ ----------
WKAMST		7


'WKO_SETU   COUNT(*)
--------- ----------
WKO_SETUP	   2


'WKODT	 COUNT(*)
------ ----------
WKODTL	     2389


'WKODTL_IN   COUNT(*)
---------- ----------
WKODTL_INS	    0


'WKODTL_NOT   COUNT(*)
----------- ----------
WKODTL_NOTE	     2


'WKOHD	 COUNT(*)
------ ----------
WKOHDR	      662


'WKOHDR_IN   COUNT(*)
---------- ----------
WKOHDR_INS	    0


'WKOHDR_NOT   COUNT(*)
----------- ----------
WKOHDR_NOTE	  1118


'WRKHS	 COUNT(*)
------ ----------
WRKHST	   112904


'WRKOP	 COUNT(*)
------ ----------
WRKOPR	       23


'WRKQU	 COUNT(*)
------ ----------
WRKQUE	     2019


'XDKWR	 COUNT(*)
------ ----------
XDKWRK		0


'ZONMS	 COUNT(*)
------ ----------
ZONMST	       97

SQL> Disconnected from Oracle8i Enterprise Edition Release 8.1.7.1.0 - Production
JServer Release 8.1.7.1.0 - Production
